<?xml version="1.0" encoding="UTF-8"?>
<session version="1.0">
<refactoring comment="Delete resource &apos;Demonstrator&apos;" deleteContents="true" description="Delete resource &apos;Demonstrator&apos;" element1="/Demonstrator" flags="7" id="org.eclipse.ltk.core.refactoring.delete.resources" resources="1" stamp="1459504702906"/>
</session>